<svg xmlns="http://www.w3.org/2000/svg" xmlns:xlink="http://www.w3.org/1999/xlink" version="1.1" viewBox="0 0 100 100">




            <g transform="                     translate(50 50)                     translate(0 0)  scale(1)                       translate(-50 -50)                     ">


                <g transform="scale(1.9230769230769231) translate(-7.850000381469727 -4.000000953674316)" id="picture"><path d="M48.5 50.5c-.6 0-1 .4-1 1V54h-35V6h26v8.5c0 .6.4 1 1 1h8V32c0 .6.4 1 1 1s1-.4 1-1V14.5c0-.1 0-.3-.1-.4 0-.1-.1-.1-.1-.2s-.1-.1-.1-.2l-9-9.5c-.1-.1-.2-.1-.3-.2H11.5c-.6 0-1 .4-1 1v50c0 .6.4 1 1 1h37c.6 0 1-.4 1-1v-3.5c0-.6-.4-1-1-1zm-8-43l5.7 6h-5.7v-6z M17 11h6c.6 0 1-.4 1-1s-.4-1-1-1h-6c-.6 0-1 .4-1 1s.4 1 1 1zm0 4.5h13c.6 0 1-.4 1-1s-.4-1-1-1H17c-.6 0-1 .4-1 1s.4 1 1 1zm39.4 30.3L38 27.4c-.4-.4-1-.7-1.7-.7-.6 0-1.2.2-1.6.6l-1.2 1.2c-.4.4-.6 1-.6 1.6 0 .7.2 1.3.7 1.7l3.1 3.1L52 50.2c.4.4.9.6 1.5.6s1.2-.3 1.7-.7l1.3-1.3c.7-.7.7-2.1-.1-3zM34.8 30l1.2-1.2s.1-.1.2-.1.2 0 .3.1l2.4 2.4-1.7 1.7-2.4-2.4c-.1-.1-.1-.4 0-.5zm20.1 17.6l-1.3 1.3c-.1.1-.2.1-.3.1L38.7 34.4l1.7-1.7L55 47.3c.1 0 0 .2-.1.3zM27 38.5c.6 0 1-.4 1-1v-1h1c.6 0 1-.4 1-1s-.4-1-1-1h-1v-1c0-.6-.4-1-1-1s-1 .4-1 1v1h-1c-.6 0-1 .4-1 1s.4 1 1 1h1v1c0 .6.4 1 1 1zm3-14h1c.6 0 1-.4 1-1s-.4-1-1-1h-1v-1c0-.6-.4-1-1-1s-1 .4-1 1v1h-1c-.6 0-1 .4-1 1s.4 1 1 1h1v1c0 .6.4 1 1 1s1-.4 1-1v-1zm11 0c.6 0 1-.4 1-1v-1h1c.6 0 1-.4 1-1s-.4-1-1-1h-1v-1c0-.6-.4-1-1-1s-1 .4-1 1v1h-1c-.6 0-1 .4-1 1s.4 1 1 1h1v1c0 .6.4 1 1 1z"/></g>


            </g>


	</svg>