<svg xmlns="http://www.w3.org/2000/svg" xmlns:xlink="http://www.w3.org/1999/xlink" version="1.1" viewBox="0 0 100 100">




            <g transform="                     translate(50 50)                     translate(0 0)  scale(1)                       translate(-50 -50)                     ">


                <g transform="scale(3.333333121405721) translate(0 9.5367431640625e-7)" id="picture"><path d="M14.9 21c-3.1 0-6-2.7-7.1-6.4-1 0-1.8-1.3-1.8-3 0-.5.1-1 .2-1.4C6.1 9.6 6 9 6 8.5 6 3.7 10.1 0 15.5 0 20.3 0 24 3.7 24 8.5c0 .5-.1 1.1-.2 1.7.1.4.2.9.2 1.4 0 1.7-.7 3.1-1.8 3-1.1 3.7-4.2 6.4-7.3 6.4zm-6.8-7.5h.2c.1.1.3.2.3.3.9 3.5 3.5 6.1 6.3 6.1s5.7-2.7 6.5-6.1c0-.2.1-.3.3-.3.1-.1.3 0 .5 0h.1c.3 0 .8-.8.8-2 0-.4-.1-.9-.2-1.2V10c0-.5.1-1 .1-1.5C23 4.2 19.8 1 15.5 1 10.7 1 7 4.2 7 8.5c0 .5.1 1 .2 1.6v.3c-.1.4-.2.8-.2 1.2 0 1.2.5 2 .8 2h.1c0-.1.1-.1.2-.1z M29.5 30H.5c-.3 0-.5-.2-.5-.5v-1.2c0-3.4 2.2-6.4 5.4-7.6l3.2-1.1c.2-.1.4 0 .5.1.4.4.8.9 1.3 1.5 1.3 1.7 3 3.7 4.5 3.7s3.2-2.1 4.5-3.7c.4-.6.9-1.1 1.3-1.5.1-.1.3-.2.5-.1l3.2 1.1c3.3 1.1 5.6 4.4 5.6 7.8v.9c0 .4-.2.6-.5.6zM1 29h28v-.4c0-2.9-2.1-5.9-4.9-6.9l-2.9-1c-.3.4-.6.8-1 1.2-1.5 1.9-3.3 4.1-5.3 4.1s-3.8-2.2-5.3-4.1c-.3-.4-.7-.8-1-1.2l-2.9 1c-2.8 1-4.7 3.6-4.7 6.6v.7zm22-18h-1.5c-.2 0-.4-.1-.4-.3-.1-.1-.9-1.6-1.1-2.7-2.8-.2-5.2-1.7-6.4-3.1-.7 1.6-2.8 2.1-4 2.1-.3.3-.6 1.9-.6 3.5 0 .3-.2.5-.5.5H7c-.3 0-.5-.2-.5-.5s.2-.5.5-.5h1c.1-2.7.6-4 1.5-4 0 0 3.5 0 3.5-2.5 0-.3.2-.5.5-.5s.5.2.5.5c0 .7 2.8 3.5 6.5 3.5.3 0 .5.2.5.5 0 .7.5 1.9.8 2.5H23c.3 0 .5.2.5.5s-.2.5-.5.5zm-9.5 1.5c-.2 0-.3-.1-.4-.2-.1-.2-.1-.5.2-.7.1-.1.9-.6 1.8-.6s1.7.5 1.8.6c.2.1.3.5.2.7-.1.2-.5.3-.7.2-.4-.2-.9-.5-1.4-.5-.5 0-1.1.3-1.2.4-.1.1-.2.1-.3.1z M11 10c-.1 0-.2 0-.2-.1-.2-.1-.3-.4-.2-.7l.5-1c0-.1.2-.2.4-.2h.7l.4-.7c.1-.3.4-.4.6-.2.2.1.3.4.2.7l-.5 1c0 .1-.2.2-.4.2h-.7l-.4.7c0 .2-.2.3-.4.3zm-.5 2c-.1 0-.2 0-.2-.1l-1.9-1c-.2-.1-.3-.4-.2-.7.1-.2.4-.3.7-.2l1.9 1c.2.1.3.4.2.7-.1.2-.3.3-.5.3zm9 0c-.2 0-.4-.1-.4-.3-.1-.2 0-.5.2-.7l2-1c.2-.1.5 0 .7.2.1.2 0 .5-.2.7l-2 1c-.1.1-.2.1-.3.1z M18 14c-1.1 0-2-.9-2-2s.9-2 2-2 2 .9 2 2-.9 2-2 2zm0-3c-.6 0-1 .4-1 1s.4 1 1 1 1-.4 1-1-.4-1-1-1zm-6 3c-1.1 0-2-.9-2-2s.9-2 2-2 2 .9 2 2-.9 2-2 2zm0-3c-.6 0-1 .4-1 1s.4 1 1 1 1-.4 1-1-.4-1-1-1z"/></g>


            </g>


	</svg>