<svg xmlns="http://www.w3.org/2000/svg" xmlns:xlink="http://www.w3.org/1999/xlink" version="1.1" viewBox="0 0 100 100">




            <g transform="                     translate(50 50)                     translate(0 0)  scale(1)                       translate(-50 -50)                     ">


                <g transform="scale(1.9230769230769231) translate(-4 -4)" id="picture"><path d="M50 4H14c-2.8 0-5 2.2-5 5v42c0 2.8 2.2 5 5 5h32c2.8 0 5-2.2 5-5V5c0-.6-.4-1-1-1zM14 6h35v37H14c-1.1 0-2.2.4-3 1V9c0-1.7 1.3-3 3-3zm35 45c0 1.7-1.3 3-3 3H14c-1.7 0-3-1.3-3-3v-3c0-1.7 1.3-3 3-3h35v6z M17.5 23h25c.6 0 1-.4 1-1V12c0-.6-.4-1-1-1h-25c-.6 0-1 .4-1 1v10c0 .6.4 1 1 1zm1-10h23v8h-23v-8zM44 46.5H16c-.6 0-1 .4-1 1s.4 1 1 1h28c.6 0 1-.4 1-1s-.4-1-1-1zm0 4H16c-.6 0-1 .4-1 1s.4 1 1 1h28c.6 0 1-.4 1-1s-.4-1-1-1z"/></g>


            </g>


	</svg>