<svg xmlns="http://www.w3.org/2000/svg" xmlns:xlink="http://www.w3.org/1999/xlink" version="1.1" viewBox="0 0 100 100">




            <g transform="                     translate(50 50)                     translate(0 0)  scale(1)                       translate(-50 -50)                     ">


                <g transform="scale(3.5714285714285716) translate(-1 -1)" id="picture"><path d="M26.5 25.5h-23C2.1 25.5 1 24.4 1 23v-8c0-1.4 1.1-2.5 2.5-2.5h23c1.4 0 2.5 1.1 2.5 2.5v8c0 1.4-1.1 2.5-2.5 2.5zm-23-12c-.8 0-1.5.7-1.5 1.5v8c0 .8.7 1.5 1.5 1.5h23c.8 0 1.5-.7 1.5-1.5v-8c0-.8-.7-1.5-1.5-1.5h-23z M8.5 23.5h-4c-.3 0-.5-.2-.5-.5v-8c0-.3.2-.5.5-.5h4c.3 0 .5.2.5.5s-.2.5-.5.5H5v7h3.5c.3 0 .5.2.5.5s-.2.5-.5.5z M7.5 19.5h-3c-.3 0-.5-.2-.5-.5s.2-.5.5-.5h3c.3 0 .5.2.5.5s-.2.5-.5.5zm8 4c-.2 0-.3-.1-.4-.2l-5-8c-.1-.2-.1-.5.2-.7.2-.1.5-.1.7.2l5 8c.1.2.1.5-.2.7h-.3z M10.5 23.5c-.1 0-.2 0-.3-.1-.2-.1-.3-.5-.2-.7l5-8c.1-.2.5-.3.7-.2.2.1.3.5.2.7l-5 8c-.1.2-.2.3-.4.3zm8 0c-.3 0-.5-.2-.5-.5v-8c0-.3.2-.5.5-.5s.5.2.5.5v8c0 .3-.2.5-.5.5zm8-8h-6c-.3 0-.5-.2-.5-.5s.2-.5.5-.5h6c.3 0 .5.2.5.5s-.2.5-.5.5z M23.5 23.5c-.3 0-.5-.2-.5-.5v-8c0-.3.2-.5.5-.5s.5.2.5.5v8c0 .3-.2.5-.5.5zm-1-10c-.3 0-.5-.2-.5-.5V7.5c0-.3.2-.5.5-.5s.5.2.5.5V13c0 .3-.2.5-.5.5z M23.5 7.5h-2C19.8 7.5 19 6.7 19 5c0-.3.2-.5.5-.5h6c.3 0 .5.2.5.5 0 1.7-.8 2.5-2.5 2.5zm-3.5-2c.1.7.5 1 1.5 1h2c.9 0 1.3-.3 1.5-1h-5zm-12.5 8c-.3 0-.5-.2-.5-.5V7.5c0-.3.2-.5.5-.5s.5.2.5.5V13c0 .3-.2.5-.5.5z M8.5 7.5h-2C4.8 7.5 4 6.7 4 5c0-.3.2-.5.5-.5h6c.3 0 .5.2.5.5 0 1.7-.8 2.5-2.5 2.5zM5 5.5c.1.7.5 1 1.5 1h2c.9 0 1.3-.3 1.5-1H5z"/></g>


            </g>


	</svg>