<svg xmlns="http://www.w3.org/2000/svg" xmlns:xlink="http://www.w3.org/1999/xlink" version="1.1" viewBox="0 0 100 100">




            <g transform="                     translate(50 50)                     translate(0 0)  scale(1)                       translate(-50 -50)                     ">


                <g transform="scale(3.3222590941082637) translate(0 0.05000019073486328)" id="picture"><path d="M26.5 22.5c-.3 0-.5-.2-.5-.5V1h-8.3L10 8.7V19c0 .3-.2.5-.5.5S9 19.3 9 19V8.5c0-.1.1-.3.1-.4l8-8c.1 0 .3-.1.4-.1h9c.3 0 .5.2.5.5V22c0 .3-.2.5-.5.5z M17.5 9h-8c-.3 0-.5-.2-.5-.5s.2-.5.5-.5H17V.5c0-.3.2-.5.5-.5s.5.2.5.5v8c0 .3-.2.5-.5.5zm-13 19h-4c-.3 0-.5-.2-.5-.5v-12c0-.1.1-.3.2-.4s.2-.1.4-.1c.9.1 5.7.6 6.8 1.6.1.1.2.3.2.4-.4 3.3-2.5 10.3-2.6 10.6-.1.3-.3.4-.5.4zM1 27h3.1c.4-1.4 2-6.9 2.3-9.8-.8-.4-3.4-.9-5.4-1.1V27z M16.7 30c-.8 0-1.5-.2-2.5-.6l-9.3-2.9c-.3-.1-.4-.4-.3-.6.1-.3.4-.4.6-.3l9.4 2.9c2.3.9 2.6.9 7.8-1.2l6.5-2.9c-.7-1-2-1.6-3.2-1.3l-5 1.6c-.3.1-.5-.1-.6-.3-.1-.3.1-.5.3-.6l5-1.6c1.8-.4 3.7.5 4.6 2.3.1.1.1.3 0 .4s-.1.2-.3.3l-7 3.2c-3.2 1.1-4.7 1.6-6 1.6z M17.9 25.2c-.3 0-.6 0-.8-.1L11.7 24c-.3-.1-.4-.3-.4-.6s.3-.4.6-.4l5.4 1.1c.5.1 1 .1 1.4 0l1.3-.3c-.1-1.3-.6-1.9-2.1-2.3L6.9 19c-.3-.1-.4-.3-.4-.6s.3-.4.6-.4l11 2.5c2 .5 2.9 1.6 2.9 3.4v.2c0 .2-.2.4-.4.5l-1.7.4c-.3.1-.6.2-1 .2z"/></g>


            </g>


	</svg>