<svg xmlns="http://www.w3.org/2000/svg" xmlns:xlink="http://www.w3.org/1999/xlink" version="1.1" viewBox="0 0 100 100">




            <g transform="                     translate(50 50)                     translate(0 0)  scale(1)                       translate(-50 -50)                     ">


                <g transform="scale(3.3326669541949627) translate(0.0029993057250976562 0)" id="picture"><path d="M29.5 11h-4.81l3.894-3.965C29.497 6.105 30 4.87 30 3.555 30 1.595 28.43 0 26.5 0S23 1.595 23 3.556V4.5c0 .276.224.5.5.5s.5-.224.5-.5v-.944C24 2.146 25.12 1 26.5 1S29 2.146 29 3.556c0 1.035-.41 2.048-1.13 2.78l-4.727 4.814c-.14.143-.182.357-.104.543s.26.307.46.307h6c.27 0 .5-.224.5-.5s-.23-.5-.5-.5zm-5.6-4.2c.166-.22.122-.53-.098-.698-.218-.166-.532-.124-.7.096C23.08 6.226 20.918 9 17 9c-2.063 0-3.634-.77-5.152-1.516C10.363 6.754 8.826 6 6.888 6 2.834 6 0 7.85 0 10.5c0 .276.224.5.5.5s.5-.224.5-.5C1 8.472 3.475 7 6.887 7c.785 0 1.498.146 2.18.37-.035.06-.06.125-.07.198l-2.314 20.09c-.087.766-.74 1.342-1.52 1.342H4.53c-.478 0-.92-.215-1.213-.59-.286-.368-.385-.837-.272-1.288.07-.268-.094-.54-.362-.607-.27-.068-.54.095-.606.363-.19.75-.026 1.534.452 2.147.48.62 1.21.975 2 .975h.63c1.282 0 2.363-.957 2.51-2.226L9.98 7.718c.476.203.944.43 1.42.663 1.363.67 2.77 1.36 4.548 1.56L14 29.456c-.03.277.173.52.447.55h.05c.253 0 .47-.19.496-.45L16.95 10H17c4.43 0 6.8-3.068 6.9-3.2z"/></g>


            </g>


	</svg>