BUG!



Některý z podprostorů nebyl zadán správně. Opravte, prosím, zadání. Pokud si nejste jistí, jak má zadání vypadat, konzultujte nápovědu k zadávání podprostorů (v horní části okna).


platné

input1:
-3+4t_1-5t_2+6t_3+t_4-t_5
-2-t_1-5t_2+3t_3-t_4+t_5
-6-t_2+3t_3+2t_4-3t_5
-1+3t_1-2t_3+t_4+t_5
4+t_2+2t_3-2t_4+t_5

input2:
6+t_1-3t_2-4t_3+t_4
-1-5t_2+3t_4
4+t_2-2t_3-3t_4
6-t_2+5t_3-t_4
-2+2t_1-3t_2-3t_4


Pro matice je třeba, aby měly řádky stejně proměnných, jinak to blbne (i v původní aplikaci)

7,8,5,6,9
4,8,1

toto taky parsuje špatně (ale
7,8,5,6,9
4,8,1,0,8 toto už parsuje dobře

BUG:
2x_1+3x_2 nefunguje, i když 2x_1+3x_2=0 funguje (a v hintu je že =0 je nepovinné) (Index 1 out of bounds for 1)
