com\janseris\bp\dataAccessLayer\LibraryDAO$1.class
com\janseris\bp\GUI$10.class
com\janseris\bp\model\UserLoginDTO.class
com\janseris\bp\webApp\AppRunner$1.class
com\janseris\bp\MathUtilities.class
com\janseris\bp\GUI$3.class
com\janseris\bp\Assignment.class
com\janseris\bp\businessLayer\LibraryService.class
com\janseris\bp\webApp\WebContentCachingConfig.class
com\janseris\bp\model\UserShowDTO.class
com\janseris\bp\GUI$9.class
com\janseris\bp\businessLayer\LogInService.class
com\janseris\bp\IOHelper.class
com\janseris\bp\LibrarySyntaxErrorException.class
com\janseris\bp\webApp\controllers\MainController.class
com\janseris\bp\dataAccessLayer\ConnectionFactory.class
com\janseris\bp\LibraryLogicalErrorException.class
com\janseris\bp\webApp\model\UserLibrariesSimpleListDTO.class
com\janseris\bp\webApp\controllers\ReportErrorController.class
com\janseris\bp\Program$1.class
com\janseris\bp\Vector.class
com\janseris\bp\LineSeparatorType.class
com\janseris\bp\Matrix$1Printer.class
com\janseris\bp\GUI$4.class
com\janseris\bp\GUI$17.class
com\janseris\bp\Point.class
com\janseris\bp\webApp\controllers\LibrariesController.class
com\janseris\bp\businessLayer\RegistrationResult.class
com\janseris\bp\SquareRootMatrix.class
com\janseris\bp\businessLayer\RegisterService.class
com\janseris\bp\webApp\model\PublicLibraryShowDTO.class
com\janseris\bp\webApp\controllers\LoginController.class
com\janseris\bp\webApp\userTracker\MapSearchUserInfo.class
com\janseris\bp\webApp\userTracker\LoggedInUserInfo.class
com\janseris\bp\GUI.class
com\janseris\bp\model\AssignmentValidityCheckDTO.class
com\janseris\bp\businessLayer\BLConsole.class
com\janseris\bp\GUI$14.class
com\janseris\bp\webApp\controllers\LogoutController.class
com\janseris\bp\model\LibraryDTO.class
com\janseris\bp\GUI$15.class
com\janseris\bp\GUI$2.class
com\janseris\bp\Matrix.class
com\janseris\bp\dataAccessLayer\LibraryDAO.class
com\janseris\bp\Constants.class
com\janseris\bp\PiFraction.class
com\janseris\bp\webApp\userTracker\OnlineUserInfo.class
com\janseris\bp\businessLayer\LibraryUploadResult.class
com\janseris\bp\model\GenerateSubspacesResultDTO.class
com\janseris\bp\GUI$1.class
com\janseris\bp\webApp\DatabaseSeeder.class
com\janseris\bp\webApp\model\SaveAssignmentResultDTO.class
com\janseris\bp\GUI$16.class
com\janseris\bp\dataAccessLayer\UserDAO.class
com\janseris\bp\webApp\ServerStartListener.class
com\janseris\bp\webApp\model\CheckLibraryDTO.class
com\janseris\bp\model\LibraryOrderingColumn.class
com\janseris\bp\GUI$20.class
com\janseris\bp\webApp\AppRunner.class
com\janseris\bp\GUI$13.class
com\janseris\bp\Fraction.class
com\janseris\bp\businessLayer\UserService.class
com\janseris\bp\webApp\model\LibraryUseDTO.class
com\janseris\bp\SquareRootFraction.class
com\janseris\bp\GUI$6.class
com\janseris\bp\model\SolveInputDTO.class
com\janseris\bp\GUI$5.class
com\janseris\bp\model\PublicAccessibility.class
com\janseris\bp\GUI$12.class
com\janseris\bp\webApp\BpSpringWebApplication.class
com\janseris\bp\model\SolveResultDTO.class
com\janseris\bp\GUI$18.class
com\janseris\bp\webApp\model\CheckSubspaceWithImageDTO.class
com\janseris\bp\model\UserDTO.class
com\janseris\bp\IOHelper$1.class
com\janseris\bp\Subspace.class
com\janseris\bp\GUI$19.class
com\janseris\bp\webApp\model\AssignmentShowDTO.class
com\janseris\bp\GUI$7.class
com\janseris\bp\businessLayer\ProgramService.class
com\janseris\bp\AssignmentSolver.class
com\janseris\bp\webApp\Test.class
com\janseris\bp\model\GenerateSubspacesResult.class
com\janseris\bp\businessLayer\AuthenticationResult.class
com\janseris\bp\GUI$11.class
com\janseris\bp\model\LibraryUpdateDTO.class
com\janseris\bp\model\LibraryDownloadDTO.class
com\janseris\bp\webApp\controllers\ProgramController.class
com\janseris\bp\businessLayer\EmailService$1.class
com\janseris\bp\webApp\userTracker\OnlineUsersTracker.class
com\janseris\bp\InputReader.class
com\janseris\bp\model\UserRegisterDTO.class
com\janseris\bp\webApp\controllers\RegisterController.class
com\janseris\bp\Cyclometric.class
com\janseris\bp\AssignmentGenerator.class
com\janseris\bp\GUI$8.class
com\janseris\bp\model\SQLResultOrderingMode.class
com\janseris\bp\webApp\controllers\UserController.class
com\janseris\bp\businessLayer\EmailService.class
com\janseris\bp\webApp\controllers\WebAppExceptionHandler.class
com\janseris\bp\webApp\ControllerUtilities.class
com\janseris\bp\Program.class
com\janseris\bp\dataAccessLayer\Utilities.class
com\janseris\bp\webApp\userTracker\AnonymousUserInfo.class
